Terminating on signal 15
2018-12-31 22:44:03.022481


2018-12-31 22:47:03.148589
Terminating on signal 15
2018-12-31 22:46:29.167477
Terminating on signal 15
2018-12-31 22:48:08.764683
Terminating on signal 15
2018-12-31 22:49:28.962431
